\relax 
\@writefile{lof}{\contentsline {figure}{\numberline {1}{\ignorespaces Dishes}}{1}}
\newlabel{fig:Graphs1}{{1}{1}}
\@writefile{lof}{\contentsline {figure}{\numberline {2}{\ignorespaces Meals}}{2}}
\newlabel{fig:Graphs2}{{2}{2}}
\@writefile{lof}{\contentsline {figure}{\numberline {3}{\ignorespaces Appetizers}}{3}}
\newlabel{fig:Graphs3}{{3}{3}}
\@writefile{lof}{\contentsline {figure}{\numberline {4}{\ignorespaces Topics}}{4}}
\newlabel{fig:Graphs4}{{4}{4}}
\@writefile{lof}{\contentsline {figure}{\numberline {5}{\ignorespaces Words}}{5}}
\newlabel{fig:Graphs5}{{5}{5}}
